…
    ## Rows: 29,678
    ## Columns: 10
    ## $ category    <chr> "Outstanding Character Voice-Over Performance - 2021", "Ou~
    ## $ logo        <chr> "https://www.emmys.com/sites/default/files/styles/show_sea~
    ## $ production  <chr> NA, NA, NA, NA, "Elisabeth Williams, Production Designer",~
    ## $ type        <chr> "Nominee", "Nominee", "Nominee", "Nominee", "Nominee", "No~
    ## $ title       <chr> "black-ish: Election Special (Part 2)", "Bridgerton", "Fam~
    ## $ distributor <chr> "ABC", "Netflix", "FOX", "FX Networks", "Hulu", "Hulu", "H~
    ## $ producer    <chr> "ABC", "A Netflix Original Series in association with shon~
    ## $ year        <dbl> 2021, 2021, 2021, 2021, 2021, 2021, 2021, 2021, 2021, 2021~
    ## $ page        <dbl> 0, 0, 0, 0, 0, 0, 0, 0, 0, 0, 0, 0, 0, 0, 0, 0, 0, 0, 0, 0~
    ## $ page_id     <dbl> 1, 2, 3, 4, 5, 5, 5, 5, 6, 6, 6, 7, 7, 7, 8, 8, 8, 9, 9, 9~

    ## $nominees
    ## # A tibble: 29,678 x 10
    ##    category   logo    production  type   title distributor producer   year  page
    ##    <chr>      <chr>   <chr>       <chr>  <chr> <chr>       <chr>     <dbl> <dbl>
    ##  1 Outstandi~ https:~ <NA>        Nomin~ blac~ ABC         ABC        2021     0
    ##  2 Outstandi~ https:~ <NA>        Nomin~ Brid~ Netflix     A Netfli~  2021     0
    ##  3 Outstandi~ https:~ <NA>        Nomin~ Fami~ FOX         20th Tel~  2021     0
    ##  4 Outstandi~ https:~ <NA>        Nomin~ Arch~ FX Networks FX Produ~  2021     0
    ##  5 Outstandi~ https:~ Elisabeth ~ Nomin~ The ~ Hulu        Hulu, MG~  2021     0
    ##  6 Outstandi~ https:~ Martha Spa~ Nomin~ The ~ Hulu        Hulu, MG~  2021     0
    ##  7 Outstandi~ https:~ Larry Spit~ Nomin~ The ~ Hulu        Hulu, MG~  2021     0
    ##  8 Outstandi~ https:~ Rob Hepbur~ Nomin~ The ~ Hulu        Hulu, MG~  2021     0
    ##  9 Outstandi~ https:~ Lester Coh~ Nomin~ The ~ HBO         HBO in a~  2021     0
    ## 10 Outstandi~ https:~ Doug Huszt~ Nomin~ The ~ HBO         HBO in a~  2021     0
    ## # ... with 29,668 more rows, and 1 more variable: page_id <dbl>
…
dat <- tt$nominees %>% 
  mutate(
    # remove year
    category = str_remove(category, " - \\d{4}"),
    # sentence case
    category = str_to_sentence(category)
  )

dat %>% 
  count(category)
```

    ## # A tibble: 413 x 2
    ##    category                                                                    n
    ##    <chr>                                                                   <int>
    ##  1 Actor-best single performance-lead or support                               5
    ##  2 Actress-best single performance-lead or support                             5
    ##  3 Best actor in a leading role (continuing character) in a dramatic seri~     3
    ##  4 Best actress in a leading role (continuing character) in a comedy seri~     6
    ##  5 Best actress in a leading role (continuing character) in a dramatic se~     1
    ##  6 Best continuing performance (female) in a series by a comedienne, sing~     5
    ##  7 Best continuing performance (male) in a series by a comedian, singer, ~     5
    ##  8 Best continuing performance by a comedian in a series                       5
    ##  9 Best continuing performance by a comedienne in a series                     5
    ## 10 Best continuing performance by an actor                                     5
    ## # ... with 403 more rows
…
