…
    ## $drivers
    ## # A tibble: 2,250 x 6
    ##    position player total  year records nation   
    ##       <dbl> <chr>  <dbl> <dbl>   <dbl> <chr>    
    ##  1        1 Penev    344  1997      NA Australia
    ##  2        1 Penev    344  1998     181 Australia
    ##  3        1 Penev    344  1999     126 Australia
    ##  4        1 Penev    344  2000      14 Australia
    ##  5        1 Penev    344  2001       5 Australia
    ##  6        1 Penev    344  2002      11 Australia
    ##  7        1 Penev    344  2003       2 Australia
    ##  8        1 Penev    344  2004       5 Australia
    ##  9        1 Penev    344  2005      NA Australia
    ## 10        1 Penev    344  2006      NA Australia
    ## # ... with 2,240 more rows
    ## 
    ## $records
    ## # A tibble: 2,334 x 9
    ##    track     type    shortcut player  system_played date       time_period  time
    ##    <chr>     <chr>   <chr>    <chr>   <chr>         <date>     <chr>       <dbl>
    ##  1 Luigi Ra~ Three ~ No       Salam   NTSC          1997-02-15 2M 12.99S    133.
    ##  2 Luigi Ra~ Three ~ No       Booth   NTSC          1997-02-16 2M 9.99S     130.
    ##  3 Luigi Ra~ Three ~ No       Salam   NTSC          1997-02-16 2M 8.99S     129.
    ##  4 Luigi Ra~ Three ~ No       Salam   NTSC          1997-02-28 2M 6.99S     127.
    ##  5 Luigi Ra~ Three ~ No       Gregg G NTSC          1997-03-07 2M 4.51S     125.
    ##  6 Luigi Ra~ Three ~ No       Rocky G NTSC          1997-04-30 2M 2.89S     123.
    ##  7 Luigi Ra~ Three ~ No       Launsp~ NTSC          1997-04-30 2M 2.87S     123.
    ##  8 Luigi Ra~ Three ~ No       Launsp~ NTSC          1997-04-30 2M 2.78S     123.
    ##  9 Luigi Ra~ Three ~ No       Launsp~ NTSC          1997-05-27 2M 2.25S     122.
    ## 10 Luigi Ra~ Three ~ No       Launsp~ NTSC          1997-05-27 2M 2.21S     122.
    ## # ... with 2,324 more rows, and 1 more variable: record_duration <dbl>
…
