…
    ## $animal_rescues
    ## # A tibble: 7,544 x 31
    ##    incident_number date_time_of_call cal_year fin_year type_of_incident
    ##              <dbl> <chr>                <dbl> <chr>    <chr>           
    ##  1          139091 01/01/2009 03:01      2009 2008/09  Special Service 
    ##  2          275091 01/01/2009 08:51      2009 2008/09  Special Service 
    ##  3         2075091 04/01/2009 10:07      2009 2008/09  Special Service 
    ##  4         2872091 05/01/2009 12:27      2009 2008/09  Special Service 
    ##  5         3553091 06/01/2009 15:23      2009 2008/09  Special Service 
    ##  6         3742091 06/01/2009 19:30      2009 2008/09  Special Service 
    ##  7         4011091 07/01/2009 06:29      2009 2008/09  Special Service 
    ##  8         4211091 07/01/2009 11:55      2009 2008/09  Special Service 
    ##  9         4306091 07/01/2009 13:48      2009 2008/09  Special Service 
    ## 10         4715091 07/01/2009 21:24      2009 2008/09  Special Service 
    ## # ... with 7,534 more rows, and 26 more variables: pump_count <chr>,
    ## #   pump_hours_total <chr>, hourly_notional_cost <dbl>,
    ## #   incident_notional_cost <chr>, final_description <chr>,
    ## #   animal_group_parent <chr>, originof_call <chr>, property_type <chr>,
    ## #   property_category <chr>, special_service_type_category <chr>,
    ## #   special_service_type <chr>, ward_code <chr>, ward <chr>,
    ## #   borough_code <chr>, borough <chr>, stn_ground_name <chr>, uprn <chr>,
    ## #   street <chr>, usrn <chr>, postcode_district <chr>, easting_m <chr>,
    ## #   northing_m <chr>, easting_rounded <dbl>, northing_rounded <dbl>,
…
    ## # A tibble: 6 x 2
    ##   animal_group_parent     n
    ##   <fct>               <int>
    ## 1 cat                  3666
    ## 2 bird                 1536
    ## 3 dog                  1194
    ## 4 wild animal           633
    ## 5 farm animal           265
    ## 6 Other                 250

``` r
dat %>% count(stn_ground_name, sort = TRUE)
```

    ## # A tibble: 107 x 2
    ##    stn_ground_name      n
    ##    <chr>            <int>
    ##  1 Enfield            136
    ##  2 Edmonton           132
    ##  3 Ilford             131
    ##  4 Tottenham          129
    ##  5 Dagenham           127
    ##  6 Hornsey            126
    ##  7 West Hampstead     120
    ##  8 North Kensington   116
    ##  9 Bethnal Green      113
    ## 10 Holloway           112
    ## # ... with 97 more rows
…
